^C:\USERS\PRO\SOURCE\REPOS\ALGOLAB3\ОДНОСВЯЗНИЙ СПИСОК\SOURCE.CPP
C:\USERS\PRO\SOURCE\REPOS\ALGOLAB3\Односвязний список\DEBUG\VC141.PDB
C:\USERS\PRO\SOURCE\REPOS\ALGOLAB3\Односвязний список\DEBUG\VC141.IDB
C:\USERS\PRO\SOURCE\REPOS\ALGOLAB3\Односвязний список\DEBUG\SOURCE.OBJ
^C:\STUDY\ALGOLAB3\ОДНОСВЯЗНИЙ СПИСОК\SOURCE.CPP
C:\STUDY\ALGOLAB3\Односвязний список\DEBUG\VC141.PDB
C:\STUDY\ALGOLAB3\Односвязний список\DEBUG\VC141.IDB
C:\STUDY\ALGOLAB3\Односвязний список\DEBUG\SOURCE.OBJ
