c:\users\pro\source\repos\algolab1\2nd\debug\vc141.pdb
c:\users\pro\source\repos\algolab1\2nd\debug\vc141.idb
c:\users\pro\source\repos\algolab1\2nd\debug\source.obj
c:\users\pro\source\repos\algolab1\debug\2nd.exe
c:\users\pro\source\repos\algolab1\debug\2nd.ilk
c:\users\pro\source\repos\algolab1\debug\2nd.pdb
c:\users\pro\source\repos\algolab1\2nd\debug\2nd.tlog\cl.command.1.tlog
c:\users\pro\source\repos\algolab1\2nd\debug\2nd.tlog\cl.read.1.tlog
c:\users\pro\source\repos\algolab1\2nd\debug\2nd.tlog\cl.write.1.tlog
c:\users\pro\source\repos\algolab1\2nd\debug\2nd.tlog\link.command.1.tlog
c:\users\pro\source\repos\algolab1\2nd\debug\2nd.tlog\link.read.1.tlog
c:\users\pro\source\repos\algolab1\2nd\debug\2nd.tlog\link.write.1.tlog
