^C:\USERS\PRO\SOURCE\REPOS\ALGOLAB3\ЧЕРГА\SOURCE.CPP
C:\USERS\PRO\SOURCE\REPOS\ALGOLAB3\Черга\DEBUG\VC141.PDB
C:\USERS\PRO\SOURCE\REPOS\ALGOLAB3\Черга\DEBUG\VC141.IDB
C:\USERS\PRO\SOURCE\REPOS\ALGOLAB3\Черга\DEBUG\SOURCE.OBJ
^C:\STUDY\ALGOLAB3\ЧЕРГА\SOURCE.CPP
C:\STUDY\ALGOLAB3\Черга\DEBUG\VC141.PDB
C:\STUDY\ALGOLAB3\Черга\DEBUG\VC141.IDB
C:\STUDY\ALGOLAB3\Черга\DEBUG\SOURCE.OBJ
