^C:\USERS\PRO\SOURCE\REPOS\ALGOLAB3\ЧЕРГА\DEBUG\SOURCE.OBJ
/OUT:"C:\USERS\PRO\SOURCE\REPOS\ALGOLAB3\DEBUG\ЧЕРГА.EXE" /INCREMENTAL /NOLOGO KERNEL32.LIB USER32.LIB GDI32.LIB WINSPOOL.LIB COMDLG32.LIB ADVAPI32.LIB SHELL32.LIB OLE32.LIB OLEAUT32.LIB UUID.LIB ODBC32.LIB ODBCCP32.LIB /MANIFEST /MANIFESTUAC:"level='asInvoker' uiAccess='false'" /manifest:embed /DEBUG:FASTLINK /PDB:"C:\USERS\PRO\SOURCE\REPOS\ALGOLAB3\DEBUG\ЧЕРГА.PDB" /TLBID:1 /DYNAMICBASE /NXCOMPAT /IMPLIB:"C:\USERS\PRO\SOURCE\REPOS\ALGOLAB3\DEBUG\ЧЕРГА.LIB" /MACHINE:X86 DEBUG\SOURCE.OBJ
^C:\STUDY\ALGOLAB3\ЧЕРГА\DEBUG\SOURCE.OBJ
/OUT:"C:\STUDY\ALGOLAB3\DEBUG\ЧЕРГА.EXE" /INCREMENTAL /NOLOGO KERNEL32.LIB USER32.LIB GDI32.LIB WINSPOOL.LIB COMDLG32.LIB ADVAPI32.LIB SHELL32.LIB OLE32.LIB OLEAUT32.LIB UUID.LIB ODBC32.LIB ODBCCP32.LIB /MANIFEST /MANIFESTUAC:"level='asInvoker' uiAccess='false'" /manifest:embed /DEBUG:FASTLINK /PDB:"C:\STUDY\ALGOLAB3\DEBUG\ЧЕРГА.PDB" /TLBID:1 /DYNAMICBASE /NXCOMPAT /IMPLIB:"C:\STUDY\ALGOLAB3\DEBUG\ЧЕРГА.LIB" /MACHINE:X86 DEBUG\SOURCE.OBJ
